<?xml version="1.0" standalone="no"?>
<!DOCTYPE svg PUBLIC "-//W3C//DTD SVG 1.1//EN" "http://www.w3.org/Graphics/SVG/1.1/DTD/svg11.dtd" >
<!--
2017-2-6: Created.
-->
<svg xmlns="http://www.w3.org/2000/svg">
<metadata>
Created by FontForge 20120731 at Mon Feb  6 16:58:20 2017
 By Apache
Created by Apache with FontForge 2.0 (http://fontforge.sf.net)
</metadata>
<defs>
<font id="Flaticon" horiz-adv-x="512" >
  <font-face 
    font-family="Flaticon"
    font-weight="500"
    font-stretch="normal"
    units-per-em="512"
    panose-1="2 0 6 3 0 0 0 0 0 0"
    ascent="448"
    descent="-64"
    bbox="-0.0023098 -64 512.013 448.001"
    underline-thickness="25.6"
    underline-position="-51.2"
    unicode-range="U+0020-F104"
  />
    <missing-glyph />
    <glyph glyph-name="space" unicode=" " horiz-adv-x="200" 
 />
    <glyph glyph-name="uniF100" unicode="&#xf100;" 
d="M255.834 -64c-90.9854 0 -165.009 74.0234 -165.009 165.009v2.39648h-3.60938c-28.0596 0 -50.8867 22.8271 -50.8867 50.8867v23.3008c0 28.0596 22.8271 50.8877 50.8867 50.8877h3.60938v74.9951c0 28.751 13.3076 56.0811 35.7852 73.8975
c-0.807617 3.89551 -1.22656 7.91211 -1.22656 11.9893c0 10.4766 5.57812 21.2393 14.9248 28.7881c0.0947266 0.0751953 0.188477 0.147461 0.286133 0.217773l5.66113 4.04102c0.201172 0.143555 0.410156 0.274414 0.625977 0.393555
c0.880859 0.480469 1.87695 1.0791 3.01953 1.76562c5.33398 3.19922 13.3945 8.03613 26.7256 12.1035c18.3818 6.02832 37.7842 9.55957 59.2246 10.7627c82.3115 4.62598 155.492 -19.4434 177.969 -58.5186
c0.0166016 -0.0283203 0.0341797 -0.0556641 0.0478516 -0.0869141c2.24414 -3.9248 4.56348 -7.98535 6.71973 -12.623c18.4785 -39.7461 3.44922 -81.4648 0.256836 -89.4111v-58.3145h3.93945c28.0596 0 50.8867 -22.8281 50.8867 -50.8877v-23.3008
c0 -28.0596 -22.8271 -50.8867 -50.8867 -50.8867h-3.93945v-2.39648c0 -90.9854 -74.0234 -165.009 -165.011 -165.009zM102.953 109.469v-8.45996c0 -84.2979 68.583 -152.881 152.881 -152.881c84.2998 0 152.883 68.583 152.883 152.881v51.4014h-10.7432
c-1.62012 0 -3.17285 0.647461 -4.3125 1.7998c-1.14062 1.15234 -1.76855 2.71191 -1.75195 4.33203c0.0078125 0.703125 0.735352 70.54 -4.66895 92.1641c-4.94824 19.791 -19.2451 27.5703 -19.3906 27.6475c-1.46484 0.776367 -2.5498 2.12012 -2.99609 3.71875
c-0.448242 1.5957 -0.222656 3.30859 0.624023 4.73438c0.0800781 0.133789 8.32227 14.2539 8.68555 27.793c0.0556641 2.11035 -8.64258 7.25098 -20.1465 10.5254c-13.1357 2.80859 -23.2334 2.65625 -23.4834 2.65625l-0.147461 -0.00292969h-126.133
c-18.2432 0 -34.0049 3.13379 -46.8467 9.31934c-2.14844 1.0332 -4.21582 2.20215 -6.19434 3.49023c-5.66406 -6.54883 -13.7227 -17.7168 -13.7002 -26.1357c0.0341797 -13.4014 8.54492 -27.4199 8.63281 -27.5576c0.875 -1.42676 1.125 -3.1582 0.686523 -4.77344
c-0.439453 -1.61621 -1.52832 -2.98145 -3.00781 -3.76465c-0.560547 -0.305664 -14.5059 -8.10645 -19.3906 -27.6475c-5.40723 -21.625 -4.67871 -91.4609 -4.66992 -92.1641c0.0175781 -1.62109 -0.610352 -3.18066 -1.75098 -4.33301
c-1.13965 -1.15137 -2.69238 -1.7998 -4.3125 -1.7998h-10.7432v-42.9434h-0.00292969zM421.175 115.533h3.60938c21.3721 0 38.7588 17.3867 38.7588 38.7588v23.3008c0 21.3721 -17.3867 38.7598 -38.7588 38.7598h-3.60938v-100.819zM87.2158 216.354
c-21.3721 0 -38.7588 -17.3867 -38.7588 -38.7588v-23.3008c0 -21.3721 17.3867 -38.7598 38.7588 -38.7598h3.60938v100.819h-3.60938zM404.076 164.538h4.64062v121.927c-5.27148 11.498 -13.4307 19.7959 -22.5293 25.7871
c-0.732422 -10.5928 -4.83008 -20.7344 -7.63086 -26.5732c6.12402 -4.78516 16.1611 -14.8857 20.4473 -32.0273c4.84961 -19.3984 5.12793 -71.166 5.07227 -89.1133zM102.953 164.538h4.64062c-0.0556641 17.9453 0.223633 69.7148 5.07227 89.1104
c4.27148 17.084 14.2529 27.1768 20.3848 31.9824c-3.08496 6.25098 -7.64062 17.3936 -7.66992 28.79c-0.03125 12.8721 10.2334 26.6934 16.4414 33.8682c-4.66699 4.76465 -8.49023 10.3652 -11.2744 16.5576c-17.4092 -15.502 -27.5967 -37.8955 -27.5967 -61.3711
v-138.938h0.00195312zM331.468 340.107c8.22754 0 57.1553 -1.5498 81.8477 -37.1406c0.861328 3.26953 1.72266 7.07031 2.43066 11.2695c-7.11426 6.92969 -32.8164 29.6191 -71.0635 36.8916c-26.7383 5.08105 -58.3174 3.11426 -88.8584 1.20996
c-22.7061 -1.41406 -46.1846 -2.88184 -66.9863 -1.2998c-20.167 1.53027 -34.1455 6.79395 -43.707 12.6787c4.38477 -6.69043 10.4854 -12.1699 17.8135 -15.6504c11.1387 -5.29297 25.0303 -7.97559 41.2861 -7.97559h126.133
c0.15332 0.00976562 0.529297 0.0166016 1.10449 0.0166016zM304.072 366.494c14.8574 0 29.3379 -0.875977 42.873 -3.44922c33.6094 -6.38965 57.9268 -23.2988 70.3799 -33.8379c0.21582 5.3418 0.0605469 10.9834 -0.660156 16.7734
c-16.9043 16.9209 -46.8867 28.7217 -86.8955 34.1748c-21.1875 2.88379 -45.3477 -0.398438 -70.9229 -3.87891c-25.7725 -3.50488 -52.4229 -7.13574 -76.4072 -3.97754c-26.5996 3.5 -38.791 13.0781 -44.3457 21.668
c-0.383789 -1.54785 -0.584961 -3.09277 -0.584961 -4.60645c0 -0.570312 0.00976562 -1.13965 0.0322266 -1.70508c1.9668 -3.81055 13.166 -21.5566 52.2139 -24.5234c19.9629 -1.51367 41.9902 -0.145508 65.3125 1.3125c16.29 1.0166 32.8701 2.0498 49.0049 2.0498z
M312.229 393.37c6.57812 0 12.9971 -0.354492 19.1777 -1.19629c33.8926 -4.61816 61.2949 -13.7725 80.5645 -26.7812c-0.710938 1.90918 -1.50098 3.80859 -2.38184 5.70312c-1.9502 4.19336 -4.05078 7.87109 -6.27539 11.7637
c-0.0117188 0.0195312 -0.0244141 0.0410156 -0.0341797 0.0605469c-19.999 34.668 -90.1113 56.7041 -166.747 52.4062c-20.3711 -1.14258 -38.7598 -4.48242 -56.2188 -10.207c-0.0996094 -0.03125 -0.210938 -0.0654297 -0.310547 -0.0947266
c-11.7402 -3.58496 -19.0342 -7.96094 -23.8584 -10.8574c-1.16699 -0.698242 -2.2002 -1.31641 -3.12891 -1.83301l-5.22266 -3.72656c-0.708008 -0.579102 -1.38965 -1.18555 -2.03809 -1.81934c0.761719 -4.77832 5.81934 -18.1943 38.2646 -22.4629
c22.3721 -2.94238 48.2051 0.572266 73.1885 3.9707c18.4209 2.50488 37.2988 5.07422 55.0205 5.07422zM299.966 37.7871c-1.55273 0 -3.10449 0.591797 -4.28809 1.77539c-10.6807 10.6797 -24.8779 16.5596 -39.9795 16.5596
c-15.1025 0 -29.3018 -5.87988 -39.9795 -16.5596c-2.36719 -2.37012 -6.20996 -2.37012 -8.57422 0c-2.37012 2.36719 -2.37012 6.20703 0 8.57422c12.9697 12.9697 30.2129 20.1133 48.5557 20.1133s35.5869 -7.14355 48.5566 -20.1133
c2.37012 -2.36719 2.37012 -6.20703 0 -8.57422c-1.18848 -1.18359 -2.74121 -1.77539 -4.29102 -1.77539zM314.93 146.734c-20.3711 0 -36.9453 16.5742 -36.9453 36.9443c0 20.3711 16.5742 36.9453 36.9453 36.9453c20.373 0 36.9473 -16.5742 36.9473 -36.9453
c0 -20.3701 -16.5742 -36.9443 -36.9473 -36.9443zM314.93 208.495c-13.6855 0 -24.8164 -11.1328 -24.8164 -24.8164c0 -13.6826 11.1328 -24.8164 24.8164 -24.8164c13.6855 0 24.8193 11.1338 24.8193 24.8164c0 13.6836 -11.1338 24.8164 -24.8193 24.8164z
M196.76 146.734c-20.3701 0 -36.9443 16.5742 -36.9443 36.9443c0 20.3711 16.5742 36.9453 36.9443 36.9453c20.3711 0 36.9453 -16.5742 36.9453 -36.9453c0 -20.3701 -16.5742 -36.9443 -36.9453 -36.9443zM196.76 208.495
c-13.6855 0 -24.8164 -11.1328 -24.8164 -24.8164c0 -13.6826 11.1338 -24.8164 24.8164 -24.8164c13.6836 0 24.8164 11.1338 24.8164 24.8164c0 13.6836 -11.1328 24.8164 -24.8164 24.8164zM314.93 177.009c-3.34961 0 -6.06445 2.71387 -6.06445 6.06348v0.606445
c0 3.34961 2.71484 6.06445 6.06445 6.06445s6.06348 -2.71484 6.06348 -6.06445v-0.606445c0 -3.34961 -2.71387 -6.06348 -6.06348 -6.06348zM196.76 177.009c-3.34961 0 -6.06348 2.71387 -6.06348 6.06348v0.606445c0 3.34961 2.71387 6.06445 6.06348 6.06445
s6.06445 -2.71484 6.06445 -6.06445v-0.606445c0 -3.34961 -2.71484 -6.06348 -6.06445 -6.06348zM180.795 239.896c-1.78613 0 -3.55371 0.783203 -4.75 2.29199c-2.08301 2.62207 -1.64648 6.43555 0.975586 8.51855l31.9355 25.377
c2.62012 2.08398 6.43555 1.64746 8.52148 -0.974609c2.08301 -2.62207 1.64648 -6.43555 -0.975586 -8.51855l-31.9385 -25.377c-1.11328 -0.888672 -2.44727 -1.31738 -3.76855 -1.31738zM330.895 239.946c-1.32129 0 -2.65332 0.429688 -3.76855 1.31445l-31.9385 25.377
c-2.62207 2.08398 -3.05859 5.89941 -0.975586 8.52148c2.08398 2.62402 5.89941 3.05859 8.52148 0.975586l31.9385 -25.3779c2.62207 -2.08301 3.05859 -5.89844 0.974609 -8.52051c-1.19824 -1.50391 -2.96582 -2.29004 -4.75195 -2.29004z" />
    <glyph glyph-name="uniF101" unicode="&#xf101;" 
d="M443.688 448c7.29004 0 13.21 -5.91309 13.21 -13.2031v-485.587c0 -7.29688 -5.91992 -13.21 -13.21 -13.21h-375.375c-7.29688 0 -13.21 5.91992 -13.21 13.21v485.587c0 7.29004 5.91992 13.2031 13.21 13.2031h375.375zM430.484 -37.5879v459.176h-348.962v-459.176
h348.962zM186.771 273.635h0.00683594v80.2197h-1.00977c-6.25391 0 -11.3203 5.06738 -11.3203 11.3203c0 6.25391 5.06641 11.3213 11.3203 11.3213h12.3232h38.252c21.3447 0 38.7148 -17.3701 38.7148 -38.7158c0 -14.3965 -7.89746 -26.9854 -19.5928 -33.6543
l19.1836 -24.8652l16.8721 20.7803c2.1543 2.65234 5.38086 4.18652 8.79004 4.18652h6.9082c6.25391 0 11.3213 -5.06641 11.3213 -11.3203s-5.06738 -11.3203 -11.3213 -11.3203h-1.51367l-16.8447 -20.7393l19.7295 -25.5732h1.33691
c6.25293 0 11.3203 -5.06738 11.3203 -11.3213c0 -6.25293 -5.06738 -11.3203 -11.3203 -11.3203h-6.9082c-3.50586 0 -6.82031 1.62988 -8.96191 4.40527l-19.8652 25.751l-21.0928 -25.9756c-2.15527 -2.65332 -5.38086 -4.1875 -8.79102 -4.1875h-8.26562
c-6.25293 0 -11.3203 5.06738 -11.3203 11.3203c0 6.25391 5.06738 11.3213 11.3203 11.3213h2.87793l21.0664 25.9346l-29.209 37.8564h-21.3662v-36.6826c0 -6.25391 -5.06641 -11.3828 -11.3203 -11.3828h-12.3232c-6.25391 0 -11.3203 5.06738 -11.3203 11.3213
c0 6.25293 5.06641 11.3203 11.3203 11.3203h1.00293zM252.416 337.773c0 8.86621 -7.20801 16.0742 -16.0801 16.0811h-26.9316v-32.1543h26.9316c8.87207 0 16.0801 7.20801 16.0801 16.0732zM117.107 153.016c0 6.25293 5.06641 11.3203 11.3203 11.3203h262.892
c6.25391 0 11.3203 -5.06738 11.3203 -11.3203c0 -6.25391 -5.06641 -11.3213 -11.3203 -11.3213h-262.892c-6.25391 0 -11.3203 5.06738 -11.3203 11.3213zM117.107 89.3945c0 6.25391 5.06641 11.3213 11.3203 11.3213h262.892
c6.25391 0 11.3203 -5.06738 11.3203 -11.3213s-5.06641 -11.3203 -11.3203 -11.3203h-262.892c-6.25391 0 -11.3203 5.06641 -11.3203 11.3203zM117.107 25.7744c0 6.25293 5.06641 11.3203 11.3203 11.3203h262.892c6.25391 0 11.3203 -5.06738 11.3203 -11.3203
c0 -6.25391 -5.06641 -11.3213 -11.3203 -11.3213h-262.892c-6.25391 0 -11.3203 5.06738 -11.3203 11.3213z" />
    <glyph glyph-name="uniF103" unicode="&#xf103;" 
d="M411.442 -63.9658c-21.2998 0 -47.0244 5.33789 -75.2979 15.9961c-62.0391 23.4004 -129.502 69.6162 -190.009 130.123c-60.5068 60.5059 -106.722 127.986 -130.122 190.043c-21.2998 56.3916 -21.3516 102.676 -0.172852 123.854
c3.06543 3.06543 6.18164 6.33691 9.38477 9.69434c19.3369 20.3184 41.7041 43.4082 70.1318 42.1514c19.9736 -0.826172 39.3105 -13.2236 59.1465 -37.8467c58.4746 -72.749 32.1133 -98.6807 1.60156 -128.745l-5.40723 -5.33691
c-4.99316 -4.99414 -14.4463 -28.1016 73.3525 -115.883c28.6865 -28.6689 53.1025 -49.6416 72.6113 -62.332c12.3115 -7.98926 34.2822 -20.042 43.2881 -11.0371l5.42383 5.47559c30.0293 30.4775 55.9609 56.7529 128.693 -1.70508
c24.6396 -19.8008 37.0205 -39.1377 37.8467 -59.1289c1.1875 -28.9619 -21.8848 -50.8643 -42.2373 -70.1836c-3.34082 -3.18555 -6.6123 -6.26758 -9.64258 -9.29785c-10.5732 -10.5557 -27.3779 -15.8418 -48.5918 -15.8418zM93.3086 430.747
c-20.5596 0 -39.1553 -19.5605 -55.5996 -36.8486c-3.32324 -3.47754 -6.54297 -6.87012 -9.69434 -10.0215c-15.7725 -15.7549 -14.1533 -57.2178 4.09863 -105.619c22.5566 -59.8008 67.377 -125.129 126.196 -183.948s124.13 -103.623 183.913 -126.18
c48.4023 -18.2686 89.8652 -19.8525 105.638 -4.06348c3.15039 3.13379 6.50879 6.33691 9.95215 9.6084c17.7012 16.8223 37.7607 35.8662 36.8994 57.0107c-0.602539 14.5156 -11.1748 30.1338 -31.4414 46.4053c-60.6094 48.6943 -77.5361 31.4756 -105.637 3.03027
l-5.50977 -5.56152c-13.3789 -13.4482 -35.1953 -10.5039 -64.8467 8.78125c-20.4902 13.3271 -45.8701 35.0752 -75.4004 64.5879v0c-72.8525 72.8525 -96.167 117.415 -73.3516 140.247l5.49219 5.44043c28.5488 28.1016 45.7676 45.0615 -2.94434 105.672
c-16.2891 20.2324 -31.9062 30.8047 -46.4219 31.4238c-0.447266 0.0175781 -0.912109 0.0351562 -1.34277 0.0351562zM414.456 236.382c-1.08496 0 -2.16992 0.206055 -3.2373 0.636719c-4.4082 1.79102 -6.54297 6.80176 -4.73535 11.1924
c10.9512 26.999 4.68359 57.7686 -15.9102 78.3799c-21.1621 21.1611 -53.6885 27.0332 -80.9795 14.7734c-4.28809 -1.94629 -9.43652 -0.0517578 -11.3818 4.28711c-1.96289 4.33984 -0.0517578 9.43652 4.28711 11.3818c33.7666 15.29 74.041 7.9375 100.248 -18.2861
c25.501 -25.501 33.2324 -63.5723 19.6807 -97.0107c-1.34277 -3.30566 -4.58008 -5.35449 -7.97168 -5.35449zM491.32 205.181c-1.08496 0 -2.16992 0.207031 -3.2373 0.637695c-4.4248 1.79004 -6.54297 6.80078 -4.73535 11.1914
c23.5039 57.9766 10.125 124.01 -34.1104 168.245c-45.4229 45.4229 -115.279 58.165 -173.823 31.6992c-4.33887 -1.89355 -9.43555 -0.0341797 -11.3984 4.30469c-1.94629 4.35645 -0.0351562 9.45312 4.30469 11.417c65.0352 29.375 142.623 15.2383 193.091 -35.2305
c49.1426 -49.1416 64.0195 -122.494 37.8818 -186.893c-1.34375 -3.33984 -4.58105 -5.37207 -7.97266 -5.37207z" />
    <glyph glyph-name="uniF104" unicode="&#xf104;" 
d="M508.961 32.0488c3.9834 -3.98242 3.9834 -10.4414 0 -14.4248l-76.4531 -76.4531c-0.557617 -0.557617 -1.17969 -1.0498 -1.85059 -1.46484c-1.57031 -0.966797 -6.94434 -3.70508 -17.4629 -3.70605c-9.75684 0 -23.9385 2.35352 -43.624 10.6602
c-51.8262 21.8682 -119.808 74.6592 -202.056 156.906c-81.9346 81.9355 -134.631 149.819 -156.622 201.765c-17.3203 40.9131 -9.1377 58.1885 -7.32129 61.2373c0.431641 0.723633 0.952148 1.39258 1.54883 1.98926l76.4531 76.4551
c1.91309 1.91211 4.50684 2.9873 7.21289 2.9873s5.2998 -1.0752 7.21191 -2.9873l125.005 -125.006c3.9834 -3.98242 3.9834 -10.4404 0 -14.4248l-47.1455 -47.1465c20.6016 -24.0059 44.6846 -49.8105 71.7002 -76.8271
c27.0244 -27.0254 52.8252 -51.1143 76.8096 -71.7197l47.165 47.1641c3.98145 3.9834 10.4404 3.9834 14.4238 0zM419.575 -42.9111l67.749 67.749l-110.581 110.581l-46.6074 -46.6064c-3.74707 -3.74707 -9.73633 -4.00195 -13.7861 -0.588867
c-26.416 22.2646 -55.0869 48.8301 -85.2178 78.9609c-30.1221 30.1221 -56.6826 58.8027 -78.9414 85.2441c-3.40918 4.05273 -3.15332 10.0381 0.59082 13.7822l46.585 46.585l-110.58 110.58l-67.6895 -67.6885c-1.96777 -8.15625 -8.43066 -68.4229 160.844 -237.696
c170.132 -170.133 229.772 -162.909 237.635 -160.902zM481.913 358.337c5.63281 0 10.2002 -4.56543 10.2002 -10.1992v-74.6426c0 -5.63379 -4.56738 -10.2002 -10.2002 -10.2002h-59.5742v-59.5742c0 -5.63281 -4.56738 -10.1982 -10.2002 -10.1982h-74.6416
c-5.63379 0 -10.2002 4.56543 -10.2002 10.1982v59.5742h-59.5742c-5.63281 0 -10.1982 4.56738 -10.1982 10.2002v74.6416c0 5.63477 4.56543 10.2002 10.1982 10.2002h59.5742v59.5742c0 5.63379 4.56738 10.2002 10.2002 10.2002h74.6416
c5.63477 0 10.2002 -4.56738 10.2002 -10.2002v-59.5742h59.5742zM471.713 283.695v54.2422h-59.5742c-5.63379 0 -10.1992 4.56738 -10.1992 10.2002v59.5742h-54.2432v-59.5742c0 -5.63379 -4.56641 -10.2002 -10.1992 -10.2002h-59.5742v-54.2422h59.5742
c5.63281 0 10.1992 -4.56641 10.1992 -10.1992v-59.5742h54.2432v59.5742c0 5.63281 4.56641 10.1992 10.1992 10.1992h59.5742zM156.112 338.939c3.98242 -3.9834 3.98242 -10.4424 0 -14.4258c-1.99316 -1.99121 -4.60352 -2.98633 -7.21289 -2.98633
c-2.61035 0 -5.22168 0.995117 -7.21289 2.98633l-5.09863 5.09961c-3.98242 3.98242 -3.98242 10.4404 0 14.4248c3.9834 3.9834 10.4414 3.9834 14.4248 0zM127.553 367.497c3.9834 -3.9834 3.9834 -10.4414 0 -14.4238
c-1.99316 -1.99219 -4.60254 -2.9873 -7.21289 -2.9873c-2.60938 0 -5.2207 0.995117 -7.21191 2.9873l-31.6182 31.6182c-3.98242 3.98242 -3.98242 10.4404 0 14.4248c3.9834 3.9834 10.4414 3.98242 14.4248 0z" />
    <glyph glyph-name="uniF102" unicode="&#xf102;" 
d="M378.387 118.205c49.499 -11 84.0664 -54.082 84.0654 -104.794v-77.4111h-412.904v77.4111c0 50.7139 34.5693 93.7959 84.0684 104.805l64.5771 14.3438v20.4062c-24.9561 18.0117 -41.291 47.2617 -41.291 80.3262v3.55859
c-20.4385 12.2549 -33.0312 33.998 -33.0312 58.1367v64.083c0 17.25 9.58691 32.7598 25.0137 40.4805c6.30078 3.14648 11.2148 8.48047 13.833 15.0293l1.99023 4.97949c6.9043 17.2666 23.3955 28.4404 42.0176 28.4404h104.159
c42.5957 0 77.2461 -34.6504 77.248 -77.2461v-75.7676c0 -24.1387 -12.5938 -45.874 -33.0322 -58.1367v-3.55859c0 -33.0664 -16.335 -62.3154 -41.291 -80.3271v-20.4053zM156.905 316.325c0 27.0703 22.0234 49.0938 49.0967 49.0938
c23.3369 0 43.5762 -16.5996 48.1523 -39.4658l0.362305 -1.8252h2.98145l0.363281 1.8252c4.5752 22.8662 24.8164 39.4658 48.1445 39.4658c27.0693 0 49.0947 -22.0234 49.0947 -49.1025v-59.1426c10.4121 9.58008 16.5156 23.1396 16.5156 37.8135v75.7676
c0 33.4873 -27.2432 60.7305 -60.7305 60.7305h-104.159c-11.8164 0 -22.2871 -7.08594 -26.6729 -18.0605l-1.99023 -4.98828c-4.1377 -10.3066 -11.875 -18.7051 -21.7852 -23.6602c-9.80273 -4.88867 -15.8887 -14.748 -15.8887 -25.6992v-64.082
c0 -14.6748 6.10156 -28.2354 16.5156 -37.8145v59.1445zM173.422 233.291c0 -45.5361 37.0439 -82.582 82.5801 -82.582c45.5352 0 82.5811 37.0469 82.5811 82.582v83.0342c0 17.9629 -14.6182 32.5791 -32.5791 32.5791c-15.4824 0 -28.9189 -11.0166 -31.9492 -26.1943
l-3.02246 -15.0967h-30.0518l-3.03027 15.0967c-3.0293 15.1777 -16.4658 26.1943 -31.9502 26.1943c-17.9619 0 -32.5781 -14.6182 -32.5781 -32.5791v-83.0342zM214.711 128.223l41.291 -68.8232l41.29 68.8232v15.0957c-12.5859 -5.79688 -26.542 -9.125 -41.29 -9.125
c-14.749 0 -28.7051 3.32812 -41.291 9.125v-15.0957zM247.099 42.1406l-42.4287 70.7129l-5.79688 -40.5801zM307.335 112.854l-42.4297 -70.7041l48.2266 30.1328zM363.356 -47.4854v29.3662c-4.87988 -2.84082 -10.4707 -4.5918 -16.5166 -4.5918
c-18.2158 0 -33.0312 14.8145 -33.0312 33.0322c0 15.3506 10.5625 28.168 24.7744 31.8594v67.9561l-14.6416 3.25391l7.06055 -49.416l-75 -46.8809l-75.001 46.8809l7.06055 49.416l-14.6416 -3.25391v-66.7832h24.7744c18.2168 0 33.0322 -14.8145 33.0322 -33.0322
v-41.291h-24.7744v16.5166h8.25879v24.7744c0 9.1084 -7.40723 16.5156 -16.5166 16.5156h-66.0635c-9.10938 0 -16.5156 -7.40723 -16.5156 -16.5156v-24.7744h8.25879v-16.5166h-24.7754v41.291c0 18.2168 14.8145 33.0322 33.0322 33.0322h24.7734v63.1084
l-19.7119 -4.38477c-41.877 -9.2998 -71.127 -45.7666 -71.127 -88.667v-60.8955h66.0654v33.0322h16.5156v-33.0322h214.71zM346.84 26.8369c-9.1084 0 -16.5156 -7.40723 -16.5156 -16.5156c0 -9.10938 7.40723 -16.5156 16.5156 -16.5156
c9.10938 0 16.5166 7.4082 16.5166 16.5156c0 9.1084 -7.40723 16.5156 -16.5166 16.5156zM445.938 -47.4844v60.8945c0 42.9004 -29.25 79.3672 -71.127 88.667l-19.7119 4.38477v-64.2803c14.2119 -3.69043 24.7754 -16.5068 24.7754 -31.8594
c0 -9.91895 -4.47656 -18.7129 -11.4131 -24.7744h11.4131v-33.0322h66.0635z" />
  </font>
</defs></svg>
